\relax 
\providecommand\hyper@newdestlabel[2]{}
\providecommand\HyperFirstAtBeginDocument{\AtBeginDocument}
\HyperFirstAtBeginDocument{\ifx\hyper@anchor\@undefined
\global\let\oldcontentsline\contentsline
\gdef\contentsline#1#2#3#4{\oldcontentsline{#1}{#2}{#3}}
\global\let\oldnewlabel\newlabel
\gdef\newlabel#1#2{\newlabelxx{#1}#2}
\gdef\newlabelxx#1#2#3#4#5#6{\oldnewlabel{#1}{{#2}{#3}}}
\AtEndDocument{\ifx\hyper@anchor\@undefined
\let\contentsline\oldcontentsline
\let\newlabel\oldnewlabel
\fi}
\fi}
\global\let\hyper@last\relax 
\gdef\HyperFirstAtBeginDocument#1{#1}
\providecommand\HyField@AuxAddToFields[1]{}
\providecommand\HyField@AuxAddToCoFields[2]{}
\@nameuse{bbl@beforestart}
\babel@aux{english}{}
\@writefile{lot}{\contentsline {table}{\numberline {1}{\ignorespaces Attribution table. Feel free to add/remove rows and columns}}{1}{table.1}\protected@file@percent }
\@writefile{toc}{\contentsline {section}{\numberline {1}Master Yodas pendulum (\texttt  {yoda\_part1.py})}{2}{section.1}\protected@file@percent }
\newlabel{yoda1}{{1}{2}{Master Yodas pendulum (\texttt {yoda\_part1.py})}{section.1}{}}
\@writefile{toc}{\contentsline {section}{\numberline {2}Yodas pendulum revisited \texttt  {yoda\_part2.py} }{3}{section.2}\protected@file@percent }
\newlabel{yoda2}{{2}{3}{Yodas pendulum revisited \texttt {yoda\_part2.py}}{section.2}{}}
\@writefile{toc}{\contentsline {section}{\numberline {3}R2D2 and control (\texttt  {r2d2.py})}{4}{section.3}\protected@file@percent }
